<?xml version="1.0" encoding="UTF-8"?>
<svg width="21px" height="23px" viewBox="0 0 21 23" version="1.1" xmlns="http://www.w3.org/2000/svg" xmlns:xlink="http://www.w3.org/1999/xlink">
    <!-- Generator: Sketch 61.2 (89653) - https://sketch.com -->
    <title>icon_gas@1,5x</title>
    <desc>Created with Sketch.</desc>
    <g id="Page-1" stroke="none" stroke-width="1" fill="none" fill-rule="evenodd">
        <g id="home" transform="translate(-310.000000, -1378.000000)" fill="#B78353" fill-rule="nonzero">
            <g id="Group-72" transform="translate(100.000000, 957.000000)">
                <g id="Group-28">
                    <g id="Group-37">
                        <g id="Group-32" transform="translate(0.000000, 337.000000)">
                            <g id="Group-31" transform="translate(0.000000, 84.000000)">
                                <g id="icon_gas" transform="translate(210.000000, 0.000000)">
                                    <rect id="Rectangle" x="16.2211972" y="1.47465429" width="1" height="1"></rect>
                                    <rect id="Rectangle" transform="translate(15.027207, 2.489869) rotate(-45.020256) translate(-15.027207, -2.489869) " x="14.658498" y="2.12115965" width="1" height="1"></rect>
                                    <rect id="Rectangle" x="14.0092158" y="3.68663572" width="1" height="1"></rect>
                                    <rect id="Rectangle" transform="translate(15.027495, 5.618291) rotate(-44.979744) translate(-15.027495, -5.618291) " x="14.6587857" y="5.24958212" width="1" height="1"></rect>
                                    <rect id="Rectangle" x="16.2211972" y="5.89861716" width="1" height="1"></rect>
                                    <rect id="Rectangle" transform="translate(18.155164, 5.617688) rotate(-45.020256) translate(-18.155164, -5.617688) " x="17.7864549" y="5.24897874" width="1" height="1"></rect>
                                    <rect id="Rectangle" x="18.4331786" y="3.68663572" width="1" height="1"></rect>
                                    <rect id="Rectangle" transform="translate(18.155940, 2.490307) rotate(-44.979744) translate(-18.155940, -2.490307) " x="17.7872304" y="2.12159771" width="1" height="1"></rect>
                                    <rect id="Rectangle" x="16.2211972" y="2.94930858" width="1" height="1"></rect>
                                    <rect id="Rectangle" x="15.48387" y="3.68663572" width="1" height="1"></rect>
                                    <rect id="Rectangle" x="16.2211972" y="4.42396287" width="1" height="1"></rect>
                                    <rect id="Rectangle" x="16.9585243" y="3.68663572" width="1" height="1"></rect>
                                    <path d="M18.0645151,7.82893963 C19.5727177,7.23723459 20.6451601,5.7706909 20.6451601,4.0552993 C20.6451601,1.81935473 18.8258053,0 16.5898608,0 C14.3539162,0 12.5345615,1.81935473 12.5345615,4.0552993 C12.5345615,5.7706909 13.6070038,7.23723459 15.1152065,7.82893963 L15.1152065,9.95391646 L13.6405522,9.95391646 L13.6405522,13.6405522 L15.1152065,13.6405522 L15.1152065,14.3778793 L15.48387,14.3778793 L15.48387,14.7465429 C15.48387,15.2265429 15.7931788,15.6320728 16.2211972,15.7846995 L16.2211972,18.6175104 C16.2211972,20.5485702 14.649953,22.1198143 12.7188933,22.1198143 C10.9762205,22.1198143 9.53105934,20.8390771 9.26451558,19.1705058 L9.58525288,19.1705058 C10.1950224,19.1705058 10.6912436,18.6742846 10.6912436,18.0645151 L10.6912436,16.802211 C11.3411975,16.5168654 11.7972343,15.8691235 11.7972343,15.1152065 L11.7972343,1.84331786 C11.7972343,0.826912393 10.9703219,0 9.95391646,0 L1.84331786,0 C0.826912393,0 -3.24819517e-14,0.826912393 -3.24819517e-14,1.84331786 L-3.24819517e-14,15.1152065 C-3.24819517e-14,16.1316119 0.826912393,16.9585243 1.84331786,16.9585243 L2.58064501,16.9585243 L2.58064501,18.2053445 C2.43244225,18.3749298 2.32258051,18.5773261 2.26433166,18.8018422 L1.47465429,18.8018422 L1.47465429,19.5391693 L2.26433166,19.5391693 C2.3985252,20.0549297 2.80221181,20.458985 3.31797215,20.5928098 L3.31797215,21.3824872 L4.0552993,21.3824872 L4.0552993,20.5928098 C4.57105964,20.4586163 4.97511491,20.0549297 5.10893979,19.5391693 L5.89861716,19.5391693 L5.89861716,18.8018422 L5.10893979,18.8018422 C5.05069094,18.5773261 4.9408292,18.3749298 4.79262644,18.2053445 L4.79262644,16.9585243 L7.00460788,16.9585243 L7.00460788,18.0645151 C7.00460788,18.6742846 7.50082905,19.1705058 8.11059859,19.1705058 L8.5194465,19.1705058 C8.79188888,21.2471877 10.5688473,22.8571415 12.7188933,22.8571415 C15.056589,22.8571415 16.9585243,20.9552061 16.9585243,18.6175104 L16.9585243,15.7846995 C17.3865427,15.6320728 17.6958515,15.2265429 17.6958515,14.7465429 L17.6958515,14.3778793 L18.0645151,14.3778793 L18.0645151,13.6405522 L19.5391693,13.6405522 L19.5391693,9.95391646 L18.0645151,9.95391646 L18.0645151,7.82893963 Z M15.1152065,12.903225 L14.3778793,12.903225 L14.3778793,10.6912436 L15.1152065,10.6912436 L15.1152065,12.903225 Z M3.68663572,19.9078329 C3.2799998,19.9078329 2.94930858,19.5771417 2.94930858,19.1705058 C2.94930858,18.7638698 3.2799998,18.4331786 3.68663572,18.4331786 C4.09327165,18.4331786 4.42396287,18.7638698 4.42396287,19.1705058 C4.42396287,19.5771417 4.09327165,19.9078329 3.68663572,19.9078329 Z M3.31797215,17.7482017 L3.31797215,16.9585243 L4.0552993,16.9585243 L4.0552993,17.7482017 C3.93658963,17.717234 3.81456198,17.6958515 3.68663572,17.6958515 C3.55870947,17.6958515 3.43668182,17.717234 3.31797215,17.7482017 Z M8.47926217,18.4331786 L8.11059859,18.4331786 C7.9070963,18.4331786 7.74193502,18.2680173 7.74193502,18.0645151 L7.74193502,16.9585243 L8.47926217,16.9585243 L8.47926217,18.4331786 Z M2.58064501,16.2211972 L2.58064501,11.7972343 L1.84331786,11.7972343 L1.84331786,16.2211972 C1.23354831,16.2211972 0.737327145,15.724976 0.737327145,15.1152065 L0.737327145,7.74193502 L1.47465429,7.74193502 C1.67815658,7.74193502 1.84331786,7.90746497 1.84331786,8.11059859 L1.84331786,11.0599072 L2.58064501,11.0599072 L2.58064501,8.11059859 C2.58064501,7.50082905 2.08442384,7.00460788 1.47465429,7.00460788 L0.737327145,7.00460788 L0.737327145,6.26728073 L2.58064501,6.26728073 L2.58064501,5.52995359 L0.737327145,5.52995359 L0.737327145,1.84331786 C0.737327145,1.23354831 1.23354831,0.737327145 1.84331786,0.737327145 L9.95391646,0.737327145 C10.563686,0.737327145 11.0599072,1.23354831 11.0599072,1.84331786 L11.0599072,5.52995359 L9.21658931,5.52995359 L9.21658931,6.26728073 L11.0599072,6.26728073 L11.0599072,7.00460788 L10.32258,7.00460788 C9.71281048,7.00460788 9.21658931,7.50082905 9.21658931,8.11059859 L9.21658931,11.0599072 L9.95391646,11.0599072 L9.95391646,8.11059859 C9.95391646,7.90746497 10.1190777,7.74193502 10.32258,7.74193502 L11.0599072,7.74193502 L11.0599072,15.1152065 C11.0599072,15.724976 10.563686,16.2211972 9.95391646,16.2211972 L9.95391646,11.7972343 L9.21658931,11.7972343 L9.21658931,16.2211972 L2.58064501,16.2211972 Z M9.21658931,16.9585243 L9.95391646,16.9585243 L9.95391646,18.0645151 C9.95391646,18.2680173 9.78875518,18.4331786 9.58525288,18.4331786 L9.21658931,18.4331786 L9.21658931,16.9585243 Z M16.9585243,14.7465429 C16.9585243,14.9500452 16.7933631,15.1152065 16.5898608,15.1152065 C16.3863585,15.1152065 16.2211972,14.9500452 16.2211972,14.7465429 L16.2211972,14.3778793 L16.9585243,14.3778793 L16.9585243,14.7465429 Z M17.3271879,13.6405522 L15.8525336,13.6405522 L15.8525336,12.1658979 L17.3271879,12.1658979 L17.3271879,13.6405522 Z M17.3271879,11.4285707 L15.8525336,11.4285707 L15.8525336,8.04018385 C16.0921649,8.08442348 16.3376949,8.11059859 16.5898608,8.11059859 C16.8420266,8.11059859 17.0875566,8.08442348 17.3271879,8.04018385 L17.3271879,11.4285707 Z M16.5898608,7.37327145 C14.7601835,7.37327145 13.2718886,5.88460794 13.2718886,4.0552993 C13.2718886,2.22599065 14.7601835,0.737327145 16.5898608,0.737327145 C18.4195381,0.737327145 19.9078329,2.22599065 19.9078329,4.0552993 C19.9078329,5.88460794 18.4195381,7.37327145 16.5898608,7.37327145 Z M18.8018422,10.6912436 L18.8018422,12.903225 L18.0645151,12.903225 L18.0645151,10.6912436 L18.8018422,10.6912436 Z" id="Shape"></path>
                                    <path d="M6.26728073,11.0930869 L6.26728073,10.32258 L5.52995359,10.32258 L5.52995359,11.0930869 C4.48552969,11.2693081 3.68663572,12.1776951 3.68663572,13.2718886 C3.68663572,14.4917964 4.6787094,15.48387 5.89861716,15.48387 C7.11852492,15.48387 8.11059859,14.4917964 8.11059859,13.2718886 C8.11059859,12.1780638 7.31170463,11.2696767 6.26728073,11.0930869 Z M5.89861716,14.7465429 C5.08534532,14.7465429 4.42396287,14.0851605 4.42396287,13.2718886 C4.42396287,12.586543 4.89548358,12.0143772 5.52995359,11.8495845 L5.52995359,12.5345615 L6.26728073,12.5345615 L6.26728073,11.8495845 C6.90175074,12.0143772 7.37327145,12.586543 7.37327145,13.2718886 C7.37327145,14.0851605 6.711889,14.7465429 5.89861716,14.7465429 Z" id="Shape"></path>
                                    <path d="M6.6359443,1.47465429 L5.16129001,1.47465429 C4.55152047,1.47465429 4.0552993,1.97087546 4.0552993,2.58064501 L4.0552993,9.58525288 L7.74193502,9.58525288 L7.74193502,2.58064501 C7.74193502,1.97087546 7.24571385,1.47465429 6.6359443,1.47465429 Z M7.00460788,8.84792574 L4.79262644,8.84792574 L4.79262644,5.16129001 L7.00460788,5.16129001 L7.00460788,8.84792574 Z M7.00460788,4.42396287 L4.79262644,4.42396287 L4.79262644,3.68663572 L7.00460788,3.68663572 L7.00460788,4.42396287 Z M7.00460788,2.94930858 L4.79262644,2.94930858 L4.79262644,2.58064501 C4.79262644,2.37751138 4.95778772,2.21198143 5.16129001,2.21198143 L6.6359443,2.21198143 C6.8394466,2.21198143 7.00460788,2.37751138 7.00460788,2.58064501 L7.00460788,2.94930858 Z" id="Shape"></path>
                                    <rect id="Rectangle" x="5.52995359" y="5.89861716" width="1" height="1"></rect>
                                    <rect id="Rectangle" x="5.52995359" y="7.37327145" width="1" height="1"></rect>
                                </g>
                            </g>
                        </g>
                    </g>
                </g>
            </g>
        </g>
    </g>
</svg>