<?xml version="1.0" encoding="UTF-8"?>
<svg width="19px" height="19px" viewBox="0 0 19 19" version="1.1" xmlns="http://www.w3.org/2000/svg" xmlns:xlink="http://www.w3.org/1999/xlink">
    <!-- Generator: Sketch 61.2 (89653) - https://sketch.com -->
    <title>telefone@1,5x</title>
    <desc>Created with Sketch.</desc>
    <g id="Page-1" stroke="none" stroke-width="1" fill="none" fill-rule="evenodd" stroke-linecap="round" stroke-linejoin="round">
        <g id="home" transform="translate(-979.000000, -23.000000)" stroke="#E5EAEA" stroke-width="1.14999999">
            <g id="Group-15" transform="translate(948.000000, 0.000000)">
                <g id="telefone" transform="translate(32.000000, 24.000000)">
                    <g id="phone-call">
                        <path d="M10.5052498,3.21999993 C12.1136313,3.53380233 13.3711973,4.79136836 13.6849997,6.39974985 M10.5052498,0 C13.8697861,0.373772955 16.5269922,3.02763667 16.9049996,6.39169985 M16.0999996,12.8155997 L16.0999996,15.2305997 C16.1018397,15.6839315 15.9124733,16.1170321 15.5784223,16.4235009 C15.2443714,16.7299696 14.7965951,16.8814035 14.3450997,16.8405996 C11.867981,16.5714404 9.48853411,15.724986 7.39794983,14.3692497 C5.45293151,13.1333041 3.80389551,11.4842681 2.56794994,9.53924978 C1.20748231,7.43916904 0.360835608,5.0481505 0.0965999978,2.55989994 C0.055925933,2.10980218 0.206298962,1.66333316 0.510986441,1.32955492 C0.81567392,0.995776676 1.24661834,0.805425577 1.69854996,0.804920835 L4.11354991,0.804920835 C4.92166045,0.797046455 5.61044805,1.38940379 5.72354987,2.18959995 C5.82548139,2.96245343 6.01451667,3.72129506 6.28704986,4.4516499 C6.50821153,5.04000428 6.36675699,5.70326891 5.92479986,6.15019986 L4.90244989,7.17254984 C6.04841202,9.18790418 7.71709543,10.8565876 9.73244978,12.0025497 L10.7547998,10.9801997 C11.2017307,10.5382426 11.8649953,10.3967881 12.4533497,10.6179498 C13.1837046,10.8904829 13.9425462,11.0795182 14.7153997,11.1814497 C15.5248776,11.2956473 16.1202776,11.9983578 16.0999996,12.8155997 L16.0999996,12.8155997 Z" id="Shape"></path>
                    </g>
                </g>
            </g>
        </g>
    </g>
</svg>