<?xml version="1.0" encoding="UTF-8"?>
<svg width="44px" height="43px" viewBox="0 0 44 43" version="1.1" xmlns="http://www.w3.org/2000/svg" xmlns:xlink="http://www.w3.org/1999/xlink">
    <!-- Generator: Sketch 61.2 (89653) - https://sketch.com -->
    <title>_Group 75@1,5x</title>
    <desc>Created with Sketch.</desc>
    <g id="Page-1" stroke="none" stroke-width="1" fill="none" fill-rule="evenodd">
        <g id="home" transform="translate(-633.000000, -1015.000000)">
            <g id="Group-72" transform="translate(100.000000, 957.000000)">
                <g id="Group-28">
                    <g id="Group-37">
                        <g id="Group-27" transform="translate(400.000000, 0.000000)">
                            <g id="Group-13" transform="translate(89.000000, 58.000000)">
                                <g id="_Group-75" transform="translate(43.965331, 0.000000)">
                                    <rect id="Rectangle-Copy-7" fill="#B78353" x="0.0346692276" y="0" width="44" height="43"></rect>
                                    <g id="arrow-right-(71)" transform="translate(15.000000, 16.000000)" stroke="#FFFFFF" stroke-linecap="round" stroke-linejoin="round">
                                        <line x1="0" y1="5.59999967" x2="11.3493327" y2="5.59999967" id="Path"></line>
                                        <polyline id="Path" points="5.67466633 0 11.3493327 5.59999967 5.67466633 11.1999993"></polyline>
                                    </g>
                                </g>
                            </g>
                        </g>
                    </g>
                </g>
            </g>
        </g>
    </g>
</svg>