<?xml version="1.0" encoding="UTF-8"?>
<svg width="17px" height="17px" viewBox="0 0 17 17" version="1.1" xmlns="http://www.w3.org/2000/svg" xmlns:xlink="http://www.w3.org/1999/xlink">
    <!-- Generator: Sketch 61.2 (89653) - https://sketch.com -->
    <title>metragem@1,5x</title>
    <desc>Created with Sketch.</desc>
    <g id="Page-1" stroke="none" stroke-width="1" fill="none" fill-rule="evenodd">
        <g id="home" transform="translate(-540.000000, -1218.000000)" fill="#B78353" fill-rule="nonzero">
            <g id="Group-72" transform="translate(100.000000, 957.000000)">
                <g id="Group-28">
                    <g id="Group-37">
                        <g id="Group-27" transform="translate(400.000000, 0.000000)">
                            <g id="Group-26" transform="translate(0.000000, 139.000000)">
                                <g id="Group-38" transform="translate(40.000000, 40.000000)">
                                    <g id="metragem" transform="translate(1.000000, 83.000000)">
                                        <path d="M14.6415425,13.3509202 L2.36178791,13.3509202 L2.36178791,0.0478527607 L14.6415425,0.0478527607 L14.6415425,13.3509202 Z M14.3765118,0.334969325 L2.62681858,0.334969325 L2.62681858,13.0638037 L14.3765118,13.0638037 L14.3765118,0.334969325 Z" id="Rectangle" stroke="#B78353" stroke-width="0.642857143"></path>
                                        <g id="Group" transform="translate(0.285714, 0.095706)" stroke="#B78353" stroke-width="0.642857143">
                                            <path d="M1.2,0.287116564 L0,0.287116564 L0,0 L1.2,0 L1.2,0.287116564 Z M1.08873626,0.159991236 L1.02445055,0.22427695 L1.02445055,0.0957055215 L1.08873626,0.159991236 Z M0.147527473,0.159991236 L0.211813187,0.0957055215 L0.211813187,0.22427695 L0.147527473,0.159991236 Z" id="Rectangle"></path>
                                            <path d="M0.728834356,13.1116564 L0.441717791,13.1116564 L0.441717791,0.0957055215 L0.728834356,0.0957055215 L0.728834356,13.1116564 Z M0.601709027,12.9927476 L0.537423313,12.9284619 L0.665994741,12.9284619 L0.601709027,12.9927476 Z M0.665994741,0.311765995 L0.537423313,0.311765995 L0.601709027,0.24748028 L0.665994741,0.311765995 Z" id="Rectangle"></path>
                                            <path d="M1.2,13.207362 L0,13.207362 L0,12.9202454 L1.2,12.9202454 L1.2,13.207362 Z M1.02445055,13.1445223 L1.02445055,13.0159509 L1.08873626,13.0802366 L1.02445055,13.1445223 Z M0.147527473,13.0802366 L0.211813187,13.0159509 L0.211813187,13.1445223 L0.147527473,13.0802366 Z" id="Rectangle-Copy-3"></path>
                                        </g>
                                        <g id="Group-Copy" transform="translate(8.151217, 15.448136) rotate(-270.000000) translate(-8.151217, -15.448136) translate(7.151217, 8.448136)" stroke="#B78353" stroke-width="0.642857143">
                                            <path d="M1.2,0.287116564 L0,0.287116564 L0,0 L1.2,0 L1.2,0.287116564 Z M1.08873626,0.159991236 L1.02445055,0.22427695 L1.02445055,0.0957055215 L1.08873626,0.159991236 Z M0.147527473,0.159991236 L0.211813187,0.0957055215 L0.211813187,0.22427695 L0.147527473,0.159991236 Z" id="Rectangle"></path>
                                            <path d="M0.728834356,13.1116564 L0.441717791,13.1116564 L0.441717791,0.0957055215 L0.728834356,0.0957055215 L0.728834356,13.1116564 Z M0.601709027,12.9927476 L0.537423313,12.9284619 L0.665994741,12.9284619 L0.601709027,12.9927476 Z M0.665994741,0.311765995 L0.537423313,0.311765995 L0.601709027,0.24748028 L0.665994741,0.311765995 Z" id="Rectangle"></path>
                                            <path d="M1.2,13.207362 L0,13.207362 L0,12.9202454 L1.2,12.9202454 L1.2,13.207362 Z M1.02445055,13.1445223 L1.02445055,13.0159509 L1.08873626,13.0802366 L1.02445055,13.1445223 Z M0.147527473,13.0802366 L0.211813187,13.0159509 L0.211813187,13.1445223 L0.147527473,13.0802366 Z" id="Rectangle-Copy-3"></path>
                                        </g>
                                        <g id="Group-2" transform="translate(6.462968, 1.531288)">
                                            <g id="Group-4">
                                                <path d="M3.04668213,5.59877301 L2.11837239,5.59877301 L2.11837239,3.45888493 C2.11837239,3.19453939 2.07728368,2.9962809 1.99510503,2.86410747 C1.91292638,2.73193404 1.78357304,2.66584831 1.60704112,2.66584831 C1.36963613,2.66584831 1.19716501,2.75978835 1.08962258,2.94767124 C0.982080149,3.13555414 0.92830974,3.4446824 0.92830974,3.87506531 L0.92830974,5.59877301 L-1.63389302e-12,5.59877301 L-1.63389302e-12,1.9350749 L0.709167769,1.9350749 L0.833956947,2.40368745 L0.885698801,2.40368745 C0.977008412,2.23546671 1.10889809,2.10384143 1.28137181,2.00880764 C1.45384552,1.91377385 1.65168004,1.86625767 1.87488131,1.86625767 C2.38418603,1.86625767 2.72912828,2.04539914 2.9097184,2.40368745 L2.99189664,2.40368745 C3.08320625,2.23328203 3.21763227,2.10111058 3.39517874,2.00716913 C3.5727252,1.91322769 3.77309607,1.86625767 3.99629734,1.86625767 C4.38182681,1.86625767 4.67350592,1.97275946 4.87134341,2.18576622 C5.0691809,2.39877299 5.16809816,2.74012488 5.16809816,3.20983211 L5.16809816,5.59877301 L4.23674478,5.59877301 L4.23674478,3.45888493 C4.23674478,3.19453939 4.19565607,2.9962809 4.11347742,2.86410747 C4.03129877,2.73193404 3.90194543,2.66584831 3.72541351,2.66584831 C3.49815404,2.66584831 3.32821925,2.75323439 3.21560407,2.92800918 C3.10298888,3.10278396 3.04668213,3.38023477 3.04668213,3.76036993 L3.04668213,5.59877301 Z" id="m"></path>
                                                <path d="M6.35993199,1.86625767 L5.17274469,1.86625767 L5.17274469,1.59569435 L5.59906341,1.12881533 L5.65629394,1.06486652 C5.75056656,0.958735028 5.81396506,0.882942712 5.84649091,0.837487848 C5.88521215,0.783374914 5.91309102,0.733247793 5.93012837,0.687104981 C5.94716571,0.640962169 5.95568426,0.593142154 5.95568426,0.543643502 C5.95568426,0.469815003 5.93690474,0.414863933 5.89934513,0.378788643 C5.86178553,0.342713354 5.81164228,0.32467598 5.74891387,0.32467598 C5.68308776,0.32467598 5.61919867,0.341035459 5.55724468,0.373754907 C5.4952907,0.406474356 5.4306272,0.453035949 5.36325224,0.513441085 L5.16809816,0.263012713 C5.25173604,0.185828373 5.32104602,0.131296777 5.37603018,0.0994162885 C5.43101434,0.0675358003 5.49103137,0.0429965821 5.55608305,0.0257978976 C5.62113474,0.00859921322 5.69392958,-4.42312853e-14 5.77446976,-4.42312853e-14 C5.88056596,-4.42312853e-14 5.97426995,0.0209736908 6.05558456,0.0629217016 C6.13689917,0.104869712 6.20001384,0.163596047 6.24493048,0.239102466 C6.28984712,0.314608885 6.3123051,0.401020491 6.3123051,0.498339876 C6.3123051,0.583074858 6.29855927,0.662565146 6.27106719,0.736813125 C6.24357511,0.811061105 6.20098238,0.887195602 6.14328773,0.965218902 C6.08559308,1.0432422 5.98395135,1.15440276 5.83835949,1.29870392 L5.61997278,1.52144674 L5.61997278,1.53906482 L6.35993199,1.53906482 L6.35993199,1.86625767 Z" id="2"></path>
                                            </g>
                                        </g>
                                    </g>
                                </g>
                            </g>
                        </g>
                    </g>
                </g>
            </g>
        </g>
    </g>
</svg>