<?xml version="1.0" encoding="UTF-8"?>
<svg width="40px" height="36px" viewBox="0 0 40 36" version="1.1" xmlns="http://www.w3.org/2000/svg" xmlns:xlink="http://www.w3.org/1999/xlink">
    <!-- Generator: Sketch 61.2 (89653) - https://sketch.com -->
    <title>swimming-pool@1,5x</title>
    <desc>Created with Sketch.</desc>
    <g id="Page-1" stroke="none" stroke-width="1" fill="none" fill-rule="evenodd">
        <g id="home" transform="translate(-158.000000, -2259.000000)" fill="#B78353" fill-rule="nonzero">
            <g id="Group-55" transform="translate(0.000000, 2048.000000)">
                <g id="Group-56" transform="translate(143.000000, 111.000000)">
                    <g id="Group-47" transform="translate(0.000000, 100.000000)">
                        <g id="Group-54">
                            <g id="Group-52" transform="translate(15.000000, 0.000000)">
                                <g id="Group-53">
                                    <g id="swimming-pool">
                                        <path d="M0.78125,35.9375 C1.88262937,35.9375 2.7920532,35.4779053 3.59466555,35.0723266 C4.30419922,34.7137452 4.97406008,34.375 5.703125,34.375 C6.43218992,34.375 7.10205078,34.7137452 7.81158445,35.0723266 C8.6141968,35.4779053 9.52362062,35.9375 10.625,35.9375 C11.7398071,35.9375 12.5918579,35.4714966 13.3435059,35.0604248 C14.0161133,34.692688 14.5968628,34.375 15.3125,34.375 C15.6665039,34.375 16.0159302,34.4528198 16.4117431,34.6203613 C16.809082,34.7888184 17.2674561,34.6026611 17.4356079,34.2053223 C17.6034546,33.8079834 17.4176025,33.3496094 17.0202637,33.1814575 C16.4254761,32.9296875 15.8828735,32.8125 15.3125,32.8125 C14.1976929,32.8125 13.3456421,33.2785034 12.5939941,33.6895752 C11.9213867,34.057312 11.3406372,34.375 10.625,34.375 C9.89593508,34.375 9.22607422,34.0362548 8.51654055,33.6776734 C7.7139282,33.2720947 6.80450437,32.8125 5.703125,32.8125 C4.60174562,32.8125 3.6923218,33.2720947 2.88970945,33.6776734 C2.18017578,34.0362548 1.51031492,34.375 0.78125,34.375 C0.349731406,34.375 0,34.7247314 0,35.15625 C0,35.5877686 0.349731406,35.9375 0.78125,35.9375 L0.78125,35.9375 Z" id="Path"></path>
                                        <path d="M39.21875,34.375 C38.4896851,34.375 37.8198242,34.0362548 37.1102905,33.6776734 C36.3076782,33.2720947 35.3982544,32.8125 34.296875,32.8125 C33.1954956,32.8125 32.2860718,33.2720947 31.4834595,33.6776734 C30.7739258,34.0362548 30.1040649,34.375 29.375,34.375 C28.6593628,34.375 28.0786133,34.057312 27.4060059,33.6895752 C26.6543579,33.2785034 25.8023071,32.8125 24.6875,32.8125 C24.1171265,32.8125 23.5745239,32.9296875 22.9797363,33.1814575 C22.5823975,33.3493042 22.3965454,33.8079834 22.5643921,34.2053223 C22.7325439,34.6026611 23.1912231,34.7888184 23.5882569,34.6203613 C23.9840698,34.4528198 24.3334961,34.375 24.6875,34.375 C25.4031372,34.375 25.9838867,34.692688 26.6564941,35.0604248 C27.4081421,35.4714966 28.2601929,35.9375 29.375,35.9375 C30.4763794,35.9375 31.3858032,35.4779053 32.1884155,35.0723266 C32.8979492,34.7137452 33.5678101,34.375 34.296875,34.375 C35.0259399,34.375 35.6958008,34.7137452 36.4053345,35.0723266 C37.2079468,35.4779053 38.1173706,35.9375 39.21875,35.9375 C39.6502686,35.9375 40,35.5877686 40,35.15625 C40,34.7247314 39.6502686,34.375 39.21875,34.375 L39.21875,34.375 Z" id="Path"></path>
                                        <path d="M20.78125,35.15625 C20.78125,35.5877686 20.4315186,35.9375 20,35.9375 C19.5684814,35.9375 19.21875,35.5877686 19.21875,35.15625 C19.21875,34.7247314 19.5684814,34.375 20,34.375 C20.4315186,34.375 20.78125,34.7247314 20.78125,35.15625 Z" id="Path"></path>
                                        <path d="M39.21875,9.375 L36.40625,9.375 L36.40625,6.25 C36.40625,2.80364992 33.6026001,0 30.15625,0 C26.7098999,0 23.90625,2.80364992 23.90625,6.25 L23.90625,9.375 L20.78125,9.375 L20.78125,6.25 C20.78125,2.80364992 17.9776001,0 14.53125,0 C11.0848999,0 8.28125,2.80364992 8.28125,6.25 L8.28125,9.375 L0.78125,9.375 C0.349731406,9.375 0,9.72473141 0,10.15625 L0,13.28125 C0,13.7127686 0.349731406,14.0625 0.78125,14.0625 L8.28125,14.0625 L8.28125,30.4345703 C7.53662109,30.0628663 6.69860844,29.6875 5.703125,29.6875 C4.60174562,29.6875 3.6923218,30.1470947 2.88970945,30.5526734 C2.18017578,30.9112548 1.51031492,31.25 0.78125,31.25 C0.349731406,31.25 0,31.5997314 0,32.03125 C0,32.4627686 0.349731406,32.8125 0.78125,32.8125 C1.88262938,32.8125 2.7920532,32.3529053 3.59466555,31.9473266 C4.30419922,31.5887452 4.97406008,31.25 5.703125,31.25 C6.43188477,31.25 7.10174562,31.5884399 7.81097414,31.9470215 C8.11218266,32.0993042 8.42376711,32.2567749 8.75061031,32.394104 C9.42810062,32.6797485 10.0234985,32.8125 10.625,32.8125 C11.4413452,32.8125 12.093811,32.5564575 12.5137329,32.3638916 C12.8048706,32.2299195 13.0786133,32.0803833 13.3435059,31.9354248 C14.0158081,31.567688 14.5965577,31.25 15.3125,31.25 C16.0281372,31.25 16.6088867,31.567688 17.2814941,31.9354248 C18.0331421,32.3464966 18.8851929,32.8125 20,32.8125 C21.1148071,32.8125 21.9668579,32.3464966 22.7185059,31.9354248 C23.3911133,31.567688 23.9718628,31.25 24.6875,31.25 C25.4034423,31.25 25.9841919,31.567688 26.6564941,31.9354248 C26.9213867,32.0803833 27.1951294,32.2299195 27.4865723,32.3638916 C27.906189,32.5564575 28.5586548,32.8125 29.375,32.8125 C30.4763794,32.8125 31.3858032,32.3529053 32.1884155,31.9473266 C32.8979492,31.5887452 33.5678101,31.25 34.296875,31.25 C35.0259399,31.25 35.6958008,31.5887452 36.4053345,31.9473266 C37.2079468,32.3529053 38.1173706,32.8125 39.21875,32.8125 C39.6502686,32.8125 40,32.4627686 40,32.03125 C40,31.5997314 39.6502686,31.25 39.21875,31.25 C38.4896851,31.25 37.8198242,30.9112548 37.1102905,30.5526734 C36.3076782,30.1470947 35.3982544,29.6875 34.296875,29.6875 C33.1954956,29.6875 32.2860718,30.1470947 31.4834595,30.5526734 C30.7739258,30.9112548 30.1040649,31.25 29.375,31.25 C29.118042,31.25 28.8659668,31.2088012 28.59375,31.1221313 L28.59375,14.0625 L39.21875,14.0625 C39.6502686,14.0625 40,13.7127686 40,13.28125 L40,10.15625 C40,9.72473141 39.6502686,9.375 39.21875,9.375 Z M16.09375,9.375 L12.96875,9.375 L12.96875,6.25 C12.96875,5.38848875 13.6697388,4.6875 14.53125,4.6875 C15.3927612,4.6875 16.09375,5.38848875 16.09375,6.25 L16.09375,9.375 Z M23.90625,18.75 L12.96875,18.75 L12.96875,14.0625 L23.90625,14.0625 L23.90625,18.75 Z M12.96875,20.3125 L23.90625,20.3125 L23.90625,25 L12.96875,25 L12.96875,20.3125 Z M23.90625,12.5 L12.96875,12.5 L12.96875,10.9375 L23.90625,10.9375 L23.90625,12.5 Z M1.5625,12.5 L1.5625,10.9375 L8.28125,10.9375 L8.28125,12.5 L1.5625,12.5 Z M9.84375,31.1300659 L9.84375,6.25 C9.84375,3.66516109 11.9464111,1.5625 14.53125,1.5625 C17.1160889,1.5625 19.21875,3.66516109 19.21875,6.25 L19.21875,9.375 L17.65625,9.375 L17.65625,6.25 C17.65625,4.5269775 16.2542725,3.125 14.53125,3.125 C12.8082275,3.125 11.40625,4.5269775 11.40625,6.25 L11.40625,31.1221313 C11.1340332,31.2088012 10.881958,31.25 10.625,31.25 C10.3729248,31.25 10.1208496,31.2115478 9.84375,31.1300659 Z M21.9689941,30.5645752 C21.2963867,30.932312 20.7156372,31.25 20,31.25 C19.2843628,31.25 18.7036133,30.932312 18.0310059,30.5645752 C17.2793579,30.1535034 16.4273071,29.6875 15.3125,29.6875 C14.378357,29.6875 13.6291504,30.0146484 12.96875,30.3622437 L12.96875,26.5625 L23.90625,26.5625 L23.90625,29.7653198 C23.1573486,29.9148559 22.53479,30.255127 21.9689941,30.5645752 Z M25.46875,29.7653198 L25.46875,6.25 C25.46875,3.66516109 27.5714111,1.5625 30.15625,1.5625 C32.7410889,1.5625 34.84375,3.66516109 34.84375,6.25 L34.84375,9.375 L33.28125,9.375 L33.28125,6.25 C33.28125,4.5269775 31.8792725,3.125 30.15625,3.125 C28.4332275,3.125 27.03125,4.5269775 27.03125,6.25 L27.03125,30.3622437 C26.5655517,30.1171875 26.0562134,29.8825073 25.46875,29.7653198 Z M28.59375,9.375 L28.59375,6.25 C28.59375,5.38848875 29.2947388,4.6875 30.15625,4.6875 C31.0177612,4.6875 31.71875,5.38848875 31.71875,6.25 L31.71875,9.375 L28.59375,9.375 Z M38.4375,12.5 L28.59375,12.5 L28.59375,10.9375 L38.4375,10.9375 L38.4375,12.5 Z" id="Shape"></path>
                                    </g>
                                </g>
                            </g>
                        </g>
                    </g>
                </g>
            </g>
        </g>
    </g>
</svg>