<?xml version="1.0" encoding="UTF-8"?>
<svg width="20px" height="13px" viewBox="0 0 20 13" version="1.1" xmlns="http://www.w3.org/2000/svg" xmlns:xlink="http://www.w3.org/1999/xlink">
    <!-- Generator: Sketch 61.2 (89653) - https://sketch.com -->
    <title>videocall@1,5x</title>
    <desc>Created with Sketch.</desc>
    <g id="Page-1" stroke="none" stroke-width="1" fill="none" fill-rule="evenodd" stroke-linecap="round" stroke-linejoin="round">
        <g id="home" transform="translate(-1142.000000, -25.000000)" stroke="#E5EAEA" stroke-width="1.14999999">
            <g id="Group-15" transform="translate(948.000000, 0.000000)">
                <g id="videocall" transform="translate(195.200003, 26.400000)">
                    <g id="video">
                        <polygon id="Path" points="17.2499999 1.56818181 11.7613636 5.48863633 17.2499999 9.40909085"></polygon>
                        <rect id="Rectangle" x="0" y="0" width="11.7613636" height="10.9772727" rx="1.56818181"></rect>
                    </g>
                </g>
            </g>
        </g>
    </g>
</svg>